<?xml version="1.0" encoding="UTF-8"?>
<svg width="33px" height="33px" viewBox="0 0 33 33" version="1.1" xmlns="http://www.w3.org/2000/svg" xmlns:xlink="http://www.w3.org/1999/xlink">
    <!-- Generator: Sketch 51.3 (57544) - http://www.bohemiancoding.com/sketch -->
    <title>002-help</title>
    <desc>Created with Sketch.</desc>
    <defs></defs>
    <g id="Welcome" stroke="none" stroke-width="1" fill="none" fill-rule="evenodd">
        <g id="home" transform="translate(-250.000000, -1878.000000)" fill="#FFFFFF" fill-rule="nonzero">
            <g id="002-help" transform="translate(250.000000, 1878.000000)">
                <path d="M20.5,18 C20.2239876,18 20,18.2239876 20,18.5 C20,18.7760124 20.2239876,19 20.5,19 C20.7760124,19 21,18.7760124 21,18.5 C21,18.2239876 20.7759623,18 20.5,18 Z" id="Shape"></path>
                <path d="M20.671671,11.6021154 L19.1960037,10.7874485 C19.2343797,10.5482403 19.2532715,10.3187868 19.2532715,10.0941792 C19.2532715,9.86957147 19.2344455,9.64011795 19.1960037,9.40090983 L20.671671,8.58624286 C20.9856567,8.41286259 21.093215,8.02897163 20.9119326,7.72865562 L19.5986559,5.55388184 C19.5115692,5.40970246 19.3682022,5.30447858 19.1999532,5.26136951 C19.0315726,5.21826044 18.8524624,5.24085337 18.7016571,5.32411366 L17.2201314,6.14199021 C16.8419003,5.86168687 16.4238451,5.63336615 15.9699809,5.45929362 L15.9699809,3.62781906 C15.9699809,3.28105853 15.676006,3 15.3133097,3 L12.6866903,3 C12.323994,3 12.0300191,3.28105853 12.0300191,3.62781906 L12.0300191,5.46023762 C11.5794462,5.63424721 11.1577047,5.86458179 10.7811193,6.14243074 L9.29827706,5.32417659 C8.98415965,5.15079633 8.58275813,5.25369169 8.40134413,5.5540077 L7.0880674,7.72871855 C6.90678505,8.02897163 7.01434327,8.41286259 7.32832904,8.58630579 L8.80399632,9.40097276 C8.76562029,9.64018089 8.74672848,9.8696344 8.74672848,10.0942421 C8.74672848,10.3188498 8.76555446,10.5483033 8.80399632,10.7875114 L7.32832904,11.6021784 C7.01434327,11.7754957 6.90678505,12.1593867 7.0880674,12.4597027 L8.40134413,14.6344135 C8.58269231,14.9346666 8.9842913,15.037562 9.29827706,14.8642446 L10.7811193,14.0459905 C11.1577047,14.3237765 11.5793804,14.5541111 12.0300191,14.7281836 L12.0300191,16.3721809 C12.0300191,16.7189415 12.323994,17 12.6866903,17 L15.3133097,17 C15.676006,17 15.9699809,16.7189415 15.9699809,16.3721809 L15.9699809,14.7290017 C16.4237792,14.5550551 16.8419003,14.3267344 17.2201314,14.0463052 L18.7016571,14.8641817 C18.8523966,14.947442 19.03177,14.9700979 19.1999532,14.9269259 C19.3682022,14.8838797 19.5115692,14.7786558 19.5986559,14.6344135 L20.9119326,12.4597027 C21.093215,12.1593867 20.9856567,11.7754957 20.671671,11.6021154 Z M18.7895995,13.4627909 L17.4750062,12.7370482 C17.223686,12.598281 16.9069355,12.6337123 16.6959661,12.8242103 C16.2573734,13.2199327 15.7285344,13.5087949 15.1239308,13.6829303 C14.846478,13.7627922 14.6566384,14.007035 14.6566384,14.2840658 L14.6566384,15.7442989 L13.3433616,15.7442989 L13.3433616,14.2840658 C13.3433616,14.0070979 13.1534562,13.7627922 12.8760692,13.6829303 C12.2713339,13.5088578 11.7427583,13.2199956 11.3049555,12.824525 C11.0940518,12.6339011 10.7771698,12.598281 10.5257179,12.7370482 L9.21046637,13.4629168 L8.55379509,12.3754984 L9.86713765,11.650385 C10.1186554,11.511492 10.2448421,11.2311887 10.1774372,10.9610805 C10.0984471,10.6445278 10.060071,10.3609519 10.060071,10.0941162 C10.060071,9.8272176 10.0984471,9.54364175 10.1774372,9.22715197 C10.2447763,8.95704377 10.1185896,8.6766775 9.86713765,8.53784742 L8.55379509,7.81273403 L9.21046637,6.72531568 L10.5257179,7.45118426 C10.7772356,7.58995141 11.093986,7.55439429 11.3049555,7.36370747 C11.7427583,6.96823684 12.2712681,6.67943756 12.8760692,6.5053021 C13.153522,6.42544019 13.3433616,6.18119743 13.3433616,5.90416661 L13.3433616,4.25563812 L14.6566384,4.25563812 L14.6566384,5.90422954 C14.6566384,6.18119743 14.8465438,6.42550313 15.1239308,6.50536503 C15.7285344,6.67937463 16.2573734,6.96836271 16.6959661,7.36408507 C16.9069355,7.55452016 17.2237518,7.58995141 17.4750062,7.4512472 L18.7895995,6.72550447 L19.4462707,7.81279696 L18.1329282,8.53791036 C17.8814104,8.67680337 17.7552237,8.9571067 17.8225628,9.2272149 C17.9015529,9.54376762 17.939929,9.82734347 17.939929,10.0941792 C17.939929,10.3610778 17.9015529,10.6446536 17.8225628,10.9611434 C17.7552237,11.2313145 17.8814104,11.5116179 18.1329282,11.6504479 L19.4462707,12.3755613 L18.7895995,13.4627909 Z" id="Shape"></path>
                <path d="M14.5,8 C13.1215322,8 12,9.12146956 12,10.5 C12,11.8784678 13.1214696,13 14.5,13 C15.8784678,13 17,11.8785304 17,10.5 C17,9.12153222 15.8785304,8 14.5,8 Z M14.5,11.7499687 C13.8107661,11.7499687 13.2500313,11.1892339 13.2500313,10.5 C13.2500313,9.81076611 13.8107661,9.25003133 14.5,9.25003133 C15.1892339,9.25003133 15.7499687,9.81076611 15.7499687,10.5 C15.7500313,11.1892339 15.1892965,11.7499687 14.5,11.7499687 Z" id="Shape"></path>
                <path d="M17.3749804,18 L8.62501958,18 C8.27980528,18 8,18.2238372 8,18.5 C8,18.7761628 8.27980528,19 8.62501958,19 L17.3749804,19 C17.7201947,19 18,18.7761628 18,18.5 C18,18.2238372 17.7201947,18 17.3749804,18 Z" id="Shape"></path>
                <path d="M31.0664666,10.6732005 L28.7461748,10.6732005 L28.7461748,1.92889244 C28.7461102,0.865284893 27.8787144,0 26.8125121,0 L1.93359804,0 C0.867460397,0 0,0.865284893 0,1.92889244 L0,20.3175983 C0,21.3812058 0.867395786,22.2464907 1.93359804,22.2464907 L5.54299828,22.2464907 L5.54299828,26.3968289 C5.54299828,26.6400755 5.68055401,26.8623747 5.89848518,26.9714941 C5.98990902,27.0171914 6.08889228,27.0397501 6.18748789,27.0397501 C6.32381601,27.0397501 6.45936881,26.9966953 6.57276022,26.9122615 L9.41019436,24.8021266 L9.41019436,27.1330139 C9.41019436,28.1966215 10.2775901,29.0619064 11.3437924,29.0619064 L23.1414735,29.0619064 L27.6883719,32.8505329 C27.8066091,32.9490175 27.9534041,33 28.1016852,33 C28.1943366,33 28.2874403,32.9800839 28.3745999,32.9394139 C28.6012534,32.8336462 28.7461102,32.6066418 28.7461102,32.3570144 L28.7461102,29.0618419 L31.066402,29.0618419 C32.1326042,29.0618419 33,28.196557 33,27.1329495 L33,12.6019641 C33.0000646,11.5384854 32.1326042,10.6732005 31.0664666,10.6732005 Z M6.8320421,25.1155627 L6.8320421,21.6035695 C6.8320421,21.2484321 6.54349167,20.9605839 6.18748789,20.9605839 L1.93359804,20.9605839 C1.57817575,20.9605839 1.28904382,20.6721556 1.28904382,20.3175983 L1.28904382,1.92889244 C1.28904382,1.57433511 1.57817575,1.28590681 1.93359804,1.28590681 L26.8125121,1.28590681 C27.1679344,1.28590681 27.4570663,1.57433511 27.4570663,1.92889244 L27.4570663,20.3175983 C27.4570663,20.6721556 27.1679344,20.9605839 26.8125121,20.9605839 L12.6328362,20.9605839 C12.4939883,20.9605839 12.3588878,21.00525 12.2476285,21.0880724 L6.8320421,25.1155627 Z M31.7109562,27.1330139 C31.7109562,27.4875713 31.4218242,27.7759996 31.066402,27.7759996 L28.1015559,27.7759996 C27.7455522,27.7759996 27.4570017,28.0638478 27.4570017,28.4189852 L27.4570017,30.9823554 L23.7884183,27.9255956 C23.6725071,27.8290446 23.5262935,27.7761285 23.3752342,27.7761285 L11.3437924,27.7761285 C10.9883701,27.7761285 10.6992382,27.4877002 10.6992382,27.1331428 L10.6992382,23.8436423 L12.8466323,22.2465552 L26.8125121,22.2465552 C27.8787144,22.2465552 28.7461102,21.3812703 28.7461102,20.3176627 L28.7461102,11.9591073 L31.066402,11.9591073 C31.4218242,11.9591073 31.7109562,12.2475356 31.7109562,12.602093 L31.7109562,27.1330139 Z" id="Shape"></path>
            </g>
        </g>
    </g>
</svg>