<?xml version="1.0" encoding="UTF-8"?>
<svg width="20px" height="26px" viewBox="0 0 20 26" version="1.1" xmlns="http://www.w3.org/2000/svg" xmlns:xlink="http://www.w3.org/1999/xlink">
    <!-- Generator: Sketch 51.3 (57544) - http://www.bohemiancoding.com/sketch -->
    <title>004-start</title>
    <desc>Created with Sketch.</desc>
    <defs></defs>
    <g id="Welcome" stroke="none" stroke-width="1" fill="none" fill-rule="evenodd">
        <g id="home" transform="translate(-259.000000, -2075.000000)" fill="#FFFFFF" fill-rule="nonzero">
            <g id="004-start" transform="translate(259.000000, 2075.000000)">
                <path d="M19.5744681,1.25806452 L2.12765957,1.25806452 L2.12765957,0.419354839 C2.12765957,0.187766129 1.93712766,0 1.70212766,0 L0.425531915,0 C0.190531915,0 0,0.187766129 0,0.419354839 L0,25.5806452 C0,25.8122339 0.190531915,26 0.425531915,26 L1.70212766,26 C1.93712766,26 2.12765957,25.8122339 2.12765957,25.5806452 L2.12765957,15.516129 L19.5744681,15.516129 C19.8094681,15.516129 20,15.3283629 20,15.0967742 L20,1.67741935 C20,1.44583065 19.8094681,1.25806452 19.5744681,1.25806452 Z M1.27659574,25.1612903 L0.85106383,25.1612903 L0.85106383,0.838709677 L1.27659574,0.838709677 L1.27659574,25.1612903 Z M19.1489362,6.29032258 L14.893617,6.29032258 L14.893617,10.483871 L19.1489362,10.483871 L19.1489362,14.6774194 L14.893617,14.6774194 L14.893617,10.483871 L10.6382979,10.483871 L10.6382979,14.6774194 L6.38297872,14.6774194 L6.38297872,10.483871 L2.12765957,10.483871 L2.12765957,6.29032258 L6.38297872,6.29032258 L6.38297872,2.09677419 L10.6382979,2.09677419 L10.6382979,6.29032258 L14.893617,6.29032258 L14.893617,2.09677419 L19.1489362,2.09677419 L19.1489362,6.29032258 Z" id="Shape"></path>
                <rect id="Rectangle-path" x="6" y="6" width="5" height="5"></rect>
            </g>
        </g>
    </g>
</svg>